com\acelity\employee\dao\EmployeeRun.class
com\acelity\employee\model\XxkciPegaEmployeeIdsV.class
com\acelity\employee\dao\EmployeeDAO.class
com\acelity\employee\dao\impl\EmployeeDAOImpl.class
com\acelity\employee\ws\EmployeeWS.class
